…
  homicide_data %>%
  
   mutate(city_state = str_c(city, ", ", state)) %>%
  
  mutate(unsolved = ifelse(disposition == "Closed without arrest" | disposition == "Open/No arrest", 1, 0)) %>%
  
  group_by(city_state) %>%
  
  summarize(total_homicides = n(), total_unsolved = sum(unsolved))

head(homicide_data_tidy, 25)
```

    ## # A tibble: 25 × 3
    ##    city_state      total_homicides total_unsolved
    ##    <chr>                     <int>          <dbl>
    ##  1 Albuquerque, NM             378            146
    ##  2 Atlanta, GA                 973            373
    ##  3 Baltimore, MD              2827           1825
    ##  4 Baton Rouge, LA             424            196
    ##  5 Birmingham, AL              800            347
    ##  6 Boston, MA                  614            310
    ##  7 Buffalo, NY                 521            319
    ##  8 Charlotte, NC               687            206
    ##  9 Chicago, IL                5535           4073
    ## 10 Cincinnati, OH              694            309
    ## # … with 15 more rows
…
